%YAML 1.1
%TAG !u! tag:unity3d.com,2011:
--- !u!181963792 &2655988077585873504
Preset:
  m_ObjectHideFlags: 0
  m_CorrespondingSourceObject: {fileID: 0}
  m_PrefabInstance: {fileID: 0}
  m_PrefabAsset: {fileID: 0}
  m_Name: AnswerTextPreset
  m_TargetType:
    m_NativeTypeID: 114
    m_ManagedTypePPtr: {fileID: 11500000, guid: 5f7201a12d95ffc409449d95f23cf332,
      type: 3}
    m_ManagedTypeFallback: 
  m_Properties:
  - target: {fileID: 0}
    propertyPath: m_Enabled
    value: 1
    objectReference: {fileID: 0}
  - target: {fileID: 0}
    propertyPath: m_EditorHideFlags
    value: 0
    objectReference: {fileID: 0}
  - target: {fileID: 0}
    propertyPath: m_EditorClassIdentifier
    value: 
    objectReference: {fileID: 0}
  - target: {fileID: 0}
    propertyPath: m_Material
    value: 
    objectReference: {fileID: 0}
  - target: {fileID: 0}
    propertyPath: m_Color.r
    value: 0
    objectReference: {fileID: 0}
  - target: {fileID: 0}
    propertyPath: m_Color.g
    value: 0
    objectReference: {fileID: 0}
  - target: {fileID: 0}
    propertyPath: m_Color.b
    value: 0
    objectReference: {fileID: 0}
  - target: {fileID: 0}
    propertyPath: m_Color.a
    value: 0.874
    objectReference: {fileID: 0}
  - target: {fileID: 0}
    propertyPath: m_RaycastTarget
    value: 1
    objectReference: {fileID: 0}
  - target: {fileID: 0}
    propertyPath: m_Maskable
    value: 1
    objectReference: {fileID: 0}
  - target: {fileID: 0}
    propertyPath: m_OnCullStateChanged.m_PersistentCalls.m_Calls.Array.size
    value: 0
    objectReference: {fileID: 0}
  - target: {fileID: 0}
    propertyPath: m_FontData.m_Font
    value: 
    objectReference: {fileID: 12800000, guid: eb699fc7667ab4083a729fd8e47ff3af, type: 3}
  - target: {fileID: 0}
    propertyPath: m_FontData.m_FontSize
    value: 50
    objectReference: {fileID: 0}
  - target: {fileID: 0}
    propertyPath: m_FontData.m_FontStyle
    value: 0
    objectReference: {fileID: 0}
  - target: {fileID: 0}
    propertyPath: m_FontData.m_BestFit
    value: 1
    objectReference: {fileID: 0}
  - target: {fileID: 0}
    propertyPath: m_FontData.m_MinSize
    value: 25
    objectReference: {fileID: 0}
  - target: {fileID: 0}
    propertyPath: m_FontData.m_MaxSize
    value: 50
    objectReference: {fileID: 0}
  - target: {fileID: 0}
    propertyPath: m_FontData.m_Alignment
    value: 4
    objectReference: {fileID: 0}
  - target: {fileID: 0}
    propertyPath: m_FontData.m_AlignByGeometry
    value: 0
    objectReference: {fileID: 0}
  - target: {fileID: 0}
    propertyPath: m_FontData.m_RichText
    value: 1
    objectReference: {fileID: 0}
  - target: {fileID: 0}
    propertyPath: m_FontData.m_HorizontalOverflow
    value: 0
    objectReference: {fileID: 0}
  - target: {fileID: 0}
    propertyPath: m_FontData.m_VerticalOverflow
    value: 0
    objectReference: {fileID: 0}
  - target: {fileID: 0}
    propertyPath: m_FontData.m_LineSpacing
    value: 1
    objectReference: {fileID: 0}
  - target: {fileID: 0}
    propertyPath: m_Text
    value: Queens of the Stone Age
    objectReference: {fileID: 0}
