%YAML 1.1
%TAG !u! tag:unity3d.com,2011:
--- !u!114 &11400000
MonoBehaviour:
  m_ObjectHideFlags: 0
  m_CorrespondingSourceObject: {fileID: 0}
  m_PrefabInstance: {fileID: 0}
  m_PrefabAsset: {fileID: 0}
  m_GameObject: {fileID: 0}
  m_Enabled: 1
  m_EditorHideFlags: 0
  m_Script: {fileID: 11500000, guid: 7f8ddcb8f288847c69551a1a96fc1044, type: 3}
  m_Name: MasterManager
  m_EditorClassIdentifier: 
  _gameSettings: {fileID: 11400000, guid: 3981a6185515f49bfb59c99349309def, type: 2}
